{
  "zipList": [
    {
      "zipName": "download_b94e1f4714f86d8fd00adc4243f3a8f3-1.zip",
      "size":1305493648
    },
    {
      "zipName": "download_b94e1f4714f86d8fd00adc4243f3a8f3-2.zip",
      "size":831871244
    }
  ],
  "hash": "download_b94e1f4714f86d8fd00adc4243f3a8f3"
}
